{
    "page": 1,
    "total_results": 27,
    "total_pages": 2,
    "results": [
        {
            "vote_count": 1642,
            "id": 9737,
            "video": false,
            "vote_average": 6.5,
            "title": "Bad Boys",
            "popularity": 4.826463,
            "poster_path": "/nkRagoJbx9H3zVSEDyH5ldfgwyR.jpg",
            "original_language": "en",
            "original_title": "Bad Boys",
            "genre_ids": [
                28,
                35,
                80,
                53
            ],
            "backdrop_path": "/2jNSXfITbGYxxWLJOLTh9eAx3y8.jpg",
            "adult": false,
            "overview": "Marcus Burnett is a hen-pecked family man. Mike Lowry is a foot-loose and fancy free ladies' man. Both are Miami policemen, and both have 72 hours to reclaim a consignment of drugs stolen from under their station's nose. To complicate matters, in order to get the assistance of the sole witness to a murder, they have to pretend to be each other.",
            "release_date": "1995-04-07"
        },
        {
            "vote_count": 1513,
            "id": 8961,
            "video": false,
            "vote_average": 6.3,
            "title": "Bad Boys II",
            "popularity": 3.828967,
            "poster_path": "/680X9apSqmAcebLg8evnnUeQNeI.jpg",
            "original_language": "en",
            "original_title": "Bad Boys II",
            "genre_ids": [
                12,
                28,
                35,
                53,
                80
            ],
            "backdrop_path": "/5xQVApmdUbBlCi1QzS8NwbCF0Ne.jpg",
            "adult": false,
            "overview": "Out-of-control, trash-talking buddy cops Marcus Burnett and Mike Lowrey of the Miami Narcotics Task Force reunite, and bullets fly, cars crash and laughs explode as they pursue a whacked-out drug lord from the streets of Miami to the barrios of Cuba. But the real fireworks result when Marcus discovers that playboy Mike is secretly romancing Marcus’ sexy sister.",
            "release_date": "2003-07-18"
        },
        {
            "vote_count": 65,
            "id": 13633,
            "video": false,
            "vote_average": 6.6,
            "title": "Bad Boys",
            "popularity": 1.483042,
            "poster_path": "/jVrUYpKefOjEnjaJ5Vnlwz0MQKK.jpg",
            "original_language": "en",
            "original_title": "Bad Boys",
            "genre_ids": [
                80,
                18,
                53
            ],
            "backdrop_path": "/sKpsZxg2ocyqAtZFqWTOWzTi2Nw.jpg",
            "adult": false,
            "overview": "Mick O'Brien is a young Chicago street thug torn between a life of petty crime and the love of his girlfriend. But when the heist of a local drug dealer goes tragically wrong Mick is sentenced to a brutal juvenile prison where violence is a rite of passage and respect is measured in vengeance.",
            "release_date": "1983-03-25"
        },
        {
            "vote_count": 2,
            "id": 45389,
            "video": false,
            "vote_average": 4.5,
            "title": "For Bad Boys Only",
            "popularity": 1.355055,
            "poster_path": "/s86zpbbO9PQ7wLFSgAbF6X1WGkF.jpg",
            "original_language": "cn",
            "original_title": "Bad Boy特攻",
            "genre_ids": [],
            "backdrop_path": null,
            "adult": false,
            "overview": "The Bad Boy Squad, a variety of private detective agency, is composed of King (Ekin Cheng Yi-kin), Queen (Kristy Yeung), and Jack (Louis Koo Tin-lok), whose primary source of business is the reuniting of clientèle with their first flames, and when the trio of young operatives returns to Hong Kong from an assignment in Thailand and the Squad's next three customers supply photographs of lost loves, the women in the pictures appear to be the same individual.",
            "release_date": "2000-12-15"
        },
        {
            "vote_count": 4,
            "id": 265330,
            "video": false,
            "vote_average": 9.5,
            "title": "Bad Boys",
            "popularity": 1.331379,
            "poster_path": "/3LdEtd3IMJtw4zitgWZpIc60UFX.jpg",
            "original_language": "en",
            "original_title": "Bad Boys",
            "genre_ids": [
                99
            ],
            "backdrop_path": "/sH1Pzqh6LvPPiyw8o1tYAjrcnbs.jpg",
            "adult": false,
            "overview": "Documentary about the Detroit Pistons.",
            "release_date": "2014-04-17"
        },
        {
            "vote_count": 15,
            "id": 20164,
            "video": false,
            "vote_average": 5.9,
            "title": "Bad Boys",
            "popularity": 1.304173,
            "poster_path": "/45wrWu5cydr43Zf5iqKCNsIUax8.jpg",
            "original_language": "fi",
            "original_title": "Pahat pojat",
            "genre_ids": [
                28,
                18,
                35
            ],
            "backdrop_path": "/zfs3l0eK9TVJzHjcWhFabj3A7ap.jpg",
            "adult": false,
            "overview": "The story bases on four Finnish brothers, nicknamed 'the Eura Daltons' who received nation-wide notoriety for tearing gas pumps apart when they needed cash. The cast is an impressive one: the brothers are portrayed by Peter Franzen, Lauri Nurkse, Niko Saarela and Jasper Pääkkönen while their really evil father is played by Vesa-Matti Loiri, one of the grand old men of Finnish cinema.",
            "release_date": "2003-01-17"
        },
        {
            "vote_count": 0,
            "id": 259307,
            "video": false,
            "vote_average": 0,
            "title": "Bad Boys - Bad Toys",
            "popularity": 1.013781,
            "poster_path": "/iCDFwFPA03z5Gmzmye67MBVwBab.jpg",
            "original_language": "de",
            "original_title": "Bad Boys - Bad Toys",
            "genre_ids": [
                35,
                27,
                28
            ],
            "backdrop_path": null,
            "adult": false,
            "overview": "",
            "release_date": "2007-03-15"
        },
        {
            "vote_count": 12,
            "id": 38700,
            "video": false,
            "vote_average": 0,
            "title": "Bad Boys for Life",
            "popularity": 1.63411,
            "poster_path": "/2GwwyfykFAf3jKXFWMkBiLgTi3k.jpg",
            "original_language": "en",
            "original_title": "Bad Boys for Life",
            "genre_ids": [
                53,
                28,
                80
            ],
            "backdrop_path": "/jnxCPdlPHv7pOurQI41Lq8MMCIY.jpg",
            "adult": false,
            "overview": "The continuing adventures of Miami detectives Mike Lowrey and Marcus Burnett. Plot unknown.",
            "release_date": "2018-11-07"
        },
        {
            "vote_count": 0,
            "id": 164695,
            "video": false,
            "vote_average": 0,
            "title": "Bad Boys",
            "popularity": 1.002357,
            "poster_path": "/fmeI6VlsIeXSFzRY7kjfXBu2jNe.jpg",
            "original_language": "ja",
            "original_title": "不良少年",
            "genre_ids": [
                99,
                18
            ],
            "backdrop_path": null,
            "adult": false,
            "overview": "A young delinquent takes part in a robbery and is sentenced to a juvenile detention center, where he clashes with other youths and reflects on his life experiences.",
            "release_date": "1961-03-29"
        },
        {
            "vote_count": 2,
            "id": 353262,
            "video": false,
            "vote_average": 0,
            "title": "Bad Boys 4",
            "popularity": 1.385407,
            "poster_path": null,
            "original_language": "en",
            "original_title": "Bad Boys 4",
            "genre_ids": [
                28,
                35
            ],
            "backdrop_path": null,
            "adult": false,
            "overview": "",
            "release_date": "2019-05-24"
        },
        {
            "vote_count": 1,
            "id": 60703,
            "video": false,
            "vote_average": 5.5,
            "title": "Slow Burn",
            "popularity": 1.146663,
            "poster_path": "/1akcgQvsQKurUjWsnkOt1dqyZHx.jpg",
            "original_language": "en",
            "original_title": "Slow Burn",
            "genre_ids": [
                28,
                18,
                9648,
                53
            ],
            "backdrop_path": "/1mG0Z7zlGHaqdU2ts944S0ULkry.jpg",
            "adult": false,
            "overview": "The murder of the ex-wife of Doctor Sam Charney (Rutger Hauer) leads Detective Della Wilder (Pam Grier) to uncover a series of women's murders somehow linked to a big pharmaceutical company.",
            "release_date": "2000-11-01"
        },
        {
            "vote_count": 0,
            "id": 449156,
            "video": false,
            "vote_average": 0,
            "title": "Good Bad Boys",
            "popularity": 1.008648,
            "poster_path": null,
            "original_language": "en",
            "original_title": "Good Bad Boys",
            "genre_ids": [],
            "backdrop_path": null,
            "adult": false,
            "overview": "Alfalfa and the gang decide to turn to a life of crime, but Spanky tries to trick them with a fake burglary.",
            "release_date": "1940-09-07"
        },
        {
            "vote_count": 0,
            "id": 103929,
            "video": false,
            "vote_average": 0,
            "title": "Bad Boys of Summer",
            "popularity": 1.005764,
            "poster_path": "/lgE7jR4SLnPWpC1AgkFfo81XzIN.jpg",
            "original_language": "en",
            "original_title": "Bad Boys of Summer",
            "genre_ids": [],
            "backdrop_path": null,
            "adult": false,
            "overview": "A look at the effect a coach has on a team made up of convicted felons, during their final season together.",
            "release_date": "2007-01-01"
        },
        {
            "vote_count": 21,
            "id": 26682,
            "video": false,
            "vote_average": 5.4,
            "title": "Roadracers",
            "popularity": 1.080739,
            "poster_path": "/dolRXp8kB6wsYn5AsCUjmyLv753.jpg",
            "original_language": "en",
            "original_title": "Roadracers",
            "genre_ids": [
                28,
                10770,
                18
            ],
            "backdrop_path": "/eHA3DO0BaqZ9UJbUSNS1HpDROhl.jpg",
            "adult": false,
            "overview": "Cynical look at a '50s rebellious Rocker who has to confront his future, thugs with knives, and the crooked town sheriff.",
            "release_date": "1994-07-22"
        },
        {
            "vote_count": 0,
            "id": 259681,
            "video": false,
            "vote_average": 0,
            "title": "Bad Girls for the Boys",
            "popularity": 1.166025,
            "poster_path": null,
            "original_language": "en",
            "original_title": "Bad Girls for the Boys",
            "genre_ids": [
                35
            ],
            "backdrop_path": null,
            "adult": false,
            "overview": "A rich swinging bachelor and his married friend escape to the country to avoid the women plaguing their lives.",
            "release_date": "1966-05-11"
        },
        {
            "vote_count": 0,
            "id": 195648,
            "video": false,
            "vote_average": 0,
            "title": "Grandma and the Bad Boys",
            "popularity": 1.002342,
            "poster_path": null,
            "original_language": "en",
            "original_title": "Grandma and the Bad Boys",
            "genre_ids": [],
            "backdrop_path": null,
            "adult": false,
            "overview": "Two bad boys enter the kitchen. One climbs to the kitchen table and takes down the old lamp, the other goes to the flour barrel and scoops out some flour, pouring it into the chimney until it is filled to the top. The lamp is then replaced in the bracket. Grandma enters, scratches a match, removes the lamp chimney, when the flour falls upon her head. It sticks in her hair and fills her eyes, but this is where she turns the tables.",
            "release_date": "1900-12-21"
        },
        {
            "vote_count": 3,
            "id": 51751,
            "video": false,
            "vote_average": 6.3,
            "title": "Playboy Cops",
            "popularity": 1.074916,
            "poster_path": "/2kMfY0v8Zc7RGMZiScoPsaJRnpq.jpg",
            "original_language": "en",
            "original_title": "Fa fa ying king",
            "genre_ids": [
                28,
                10749,
                53
            ],
            "backdrop_path": "/oBlRsTv5KsDGS2JKU5Z7OvZ4C6.jpg",
            "adult": false,
            "overview": "Two off-the-wall detectives go in search for a killer, while vying for the affections of a young woman.",
            "release_date": "2008-02-28"
        },
        {
            "vote_count": 0,
            "id": 321968,
            "video": false,
            "vote_average": 0,
            "title": "Gekijouban Bad Boys J: Saigo ni mamorumono",
            "popularity": 1.030089,
            "poster_path": null,
            "original_language": "ja",
            "original_title": "Gekijouban Bad Boys J: Saigo ni mamorumono",
            "genre_ids": [
                18,
                28
            ],
            "backdrop_path": null,
            "adult": false,
            "overview": "",
            "release_date": "2013-11-09"
        },
        {
            "vote_count": 1,
            "id": 427262,
            "video": true,
            "vote_average": 8,
            "title": "Bad Boys of Saturday Night Live",
            "popularity": 1.007118,
            "poster_path": null,
            "original_language": "en",
            "original_title": "Bad Boys of Saturday Night Live",
            "genre_ids": [],
            "backdrop_path": null,
            "adult": false,
            "overview": "Adam Sandler, David Spade, Chris Rock, Rob Schneider and Chris Farley put together this hilarious Saturday Night Live sketch celebration! With each one of their memorable characters: Sandler's Opera Man, Spade's sarcastic news commenator, Rock's Nat X, Schneider's Richard the Copy Guy, and Farley's host of the Chris Farley Show.\r - Written by Dylan Self",
            "release_date": "1998-09-26"
        },
        {
            "vote_count": 18,
            "id": 26461,
            "video": false,
            "vote_average": 7.6,
            "title": "Trailer Park Boys: Say Goodnight to the Bad Guys",
            "popularity": 1.030092,
            "poster_path": "/kBiXi4ArWFds3RP9xm13ReLry1z.jpg",
            "original_language": "en",
            "original_title": "Trailer Park Boys: Say Goodnight to the Bad Guys",
            "genre_ids": [
                35
            ],
            "backdrop_path": "/u3uJij82LjEZO78dkXYL6CpehxE.jpg",
            "adult": false,
            "overview": "\"Say goodnight to the bad guys\" picks up where \"A Sh*t river runs through it\" left off. it's a year after the events of A.S.R.R.T.I and Ricky, Julian, and bubbles are rich with cash, but Julian sits on the money for a year claiming \"movies like casino prove that waving money around right away is a bad idea.\" and then hides it in his newly purchased Delorean (AKA car from back to the future)",
            "release_date": "2008-12-07"
        }
    ]
}